-- Merging decision tree log ---
manifest
ADDED from C:\Users\timde\Documents\000_All_Files\000_KDG\2022-2023\000_Vakken\UserInterfaces2\SuperProject\00SuperProject\androidprojects\material2composetemplate\U1_PW3_BirthdayCard\src\main\AndroidManifest.xml:18:1-41:12
INJECTED from C:\Users\timde\Documents\000_All_Files\000_KDG\2022-2023\000_Vakken\UserInterfaces2\SuperProject\00SuperProject\androidprojects\material2composetemplate\U1_PW3_BirthdayCard\src\main\AndroidManifest.xml:18:1-41:12
INJECTED from C:\Users\timde\Documents\000_All_Files\000_KDG\2022-2023\000_Vakken\UserInterfaces2\SuperProject\00SuperProject\androidprojects\material2composetemplate\U1_PW3_BirthdayCard\src\main\AndroidManifest.xml:18:1-41:12
INJECTED from C:\Users\timde\Documents\000_All_Files\000_KDG\2022-2023\000_Vakken\UserInterfaces2\SuperProject\00SuperProject\androidprojects\material2composetemplate\U1_PW3_BirthdayCard\src\main\AndroidManifest.xml:18:1-41:12
MERGED from [androidx.compose.material:material-ripple:1.4.2] C:\Users\timde\.gradle\caches\transforms-3\e151e7bbd601077556a000ca735b5bca\transformed\material-ripple-1.4.2\AndroidManifest.xml:17:1-22:12
MERGED from [androidx.compose.material:material-icons-core:1.4.2] C:\Users\timde\.gradle\caches\transforms-3\cd7f9f14574b2bb4e0d14406e56f8cda\transformed\material-icons-core-1.4.2\AndroidManifest.xml:17:1-22:12
MERGED from [androidx.compose.material:material-icons-extended:1.4.2] C:\Users\timde\.gradle\caches\transforms-3\e33b6464aeb43a03a36034dbbaf1a6a8\transformed\material-icons-extended-1.4.2\AndroidManifest.xml:17:1-22:12
MERGED from [androidx.compose.animation:animation-core:1.4.2] C:\Users\timde\.gradle\caches\transforms-3\1465070322dc321e2e8fbd6d084bcc76\transformed\animation-core-1.4.2\AndroidManifest.xml:17:1-22:12
MERGED from [androidx.compose.animation:animation:1.4.2] C:\Users\timde\.gradle\caches\transforms-3\e5e5400f3a555c88e9a3aeca8871dc55\transformed\animation-1.4.2\AndroidManifest.xml:17:1-22:12
MERGED from [androidx.compose.foundation:foundation-layout:1.4.2] C:\Users\timde\.gradle\caches\transforms-3\f45ff29e5c9ce2b61f15989f1a7d866b\transformed\foundation-layout-1.4.2\AndroidManifest.xml:17:1-22:12
MERGED from [androidx.compose.foundation:foundation:1.4.2] C:\Users\timde\.gradle\caches\transforms-3\d62091256b9f483cb94a1ebc21d1783c\transformed\foundation-1.4.2\AndroidManifest.xml:17:1-22:12
MERGED from [androidx.compose.ui:ui-tooling-data:1.4.2] C:\Users\timde\.gradle\caches\transforms-3\ebfee9540e38724119304eb07e1aa068\transformed\ui-tooling-data-1.4.2\AndroidManifest.xml:17:1-22:12
MERGED from [androidx.compose.ui:ui-tooling-preview:1.4.2] C:\Users\timde\.gradle\caches\transforms-3\53f94cfd74ed4bddcab34d2675315c8f\transformed\ui-tooling-preview-1.4.2\AndroidManifest.xml:17:1-22:12
MERGED from [androidx.compose.ui:ui-util:1.4.2] C:\Users\timde\.gradle\caches\transforms-3\a0d7696249b32b63be70807ecb814611\transformed\ui-util-1.4.2\AndroidManifest.xml:17:1-22:12
MERGED from [androidx.compose.ui:ui-unit:1.4.2] C:\Users\timde\.gradle\caches\transforms-3\ad96538edbdf7ce323d3f6360b0875da\transformed\ui-unit-1.4.2\AndroidManifest.xml:17:1-22:12
MERGED from [androidx.compose.ui:ui-text:1.4.2] C:\Users\timde\.gradle\caches\transforms-3\bd110d47d9dfce0829c517ff7b466236\transformed\ui-text-1.4.2\AndroidManifest.xml:17:1-22:12
MERGED from [androidx.compose.ui:ui-graphics:1.4.2] C:\Users\timde\.gradle\caches\transforms-3\f7799cd3e09693a77ffb2ccf096ed6e2\transformed\ui-graphics-1.4.2\AndroidManifest.xml:17:1-22:12
MERGED from [androidx.compose.ui:ui-geometry:1.4.2] C:\Users\timde\.gradle\caches\transforms-3\e88ac30c98b50249cc8ad7ee8ee9341b\transformed\ui-geometry-1.4.2\AndroidManifest.xml:17:1-22:12
MERGED from [androidx.compose.ui:ui-test-manifest:1.4.2] C:\Users\timde\.gradle\caches\transforms-3\5f9339112f2be119227f50b12ba96f22\transformed\ui-test-manifest-1.4.2\AndroidManifest.xml:17:1-28:12
MERGED from [androidx.activity:activity:1.7.1] C:\Users\timde\.gradle\caches\transforms-3\b634978aabb70b808819a516ed088c30\transformed\activity-1.7.1\AndroidManifest.xml:17:1-22:12
MERGED from [androidx.activity:activity-ktx:1.7.1] C:\Users\timde\.gradle\caches\transforms-3\75c082df9d66b13976037364f76127ca\transformed\activity-ktx-1.7.1\AndroidManifest.xml:17:1-22:12
MERGED from [androidx.activity:activity-compose:1.7.1] C:\Users\timde\.gradle\caches\transforms-3\7f9a1de74d798ce4e855eed02b4b28e0\transformed\activity-compose-1.7.1\AndroidManifest.xml:17:1-22:12
MERGED from [androidx.compose.ui:ui:1.4.2] C:\Users\timde\.gradle\caches\transforms-3\7f5b02014d9ec1b34b4ab94afbfac7a1\transformed\ui-1.4.2\AndroidManifest.xml:17:1-22:12
MERGED from [androidx.compose.ui:ui-tooling:1.4.2] C:\Users\timde\.gradle\caches\transforms-3\6550bc1a497d409e7ed2aa161f8811a1\transformed\ui-tooling-1.4.2\AndroidManifest.xml:17:1-28:12
MERGED from [androidx.compose.material:material:1.4.2] C:\Users\timde\.gradle\caches\transforms-3\f55e3fd36ef81ba5b94be32c34549c00\transformed\material-1.4.2\AndroidManifest.xml:17:1-22:12
MERGED from [androidx.emoji2:emoji2:1.3.0] C:\Users\timde\.gradle\caches\transforms-3\1d818927aeb332103587aef7ed3e014f\transformed\emoji2-1.3.0\AndroidManifest.xml:17:1-35:12
MERGED from [androidx.lifecycle:lifecycle-livedata-core:2.6.1] C:\Users\timde\.gradle\caches\transforms-3\ddb0b65a15277ea1a5f51750eec31537\transformed\lifecycle-livedata-core-2.6.1\AndroidManifest.xml:17:1-22:12
MERGED from [androidx.lifecycle:lifecycle-process:2.6.1] C:\Users\timde\.gradle\caches\transforms-3\8496ad6fc3106366db9a7578fe6073d8\transformed\lifecycle-process-2.6.1\AndroidManifest.xml:17:1-35:12
MERGED from [androidx.lifecycle:lifecycle-viewmodel-ktx:2.6.1] C:\Users\timde\.gradle\caches\transforms-3\6edc7de7c7b6bf424298dc179471fea1\transformed\lifecycle-viewmodel-ktx-2.6.1\AndroidManifest.xml:17:1-22:12
MERGED from [androidx.lifecycle:lifecycle-viewmodel:2.6.1] C:\Users\timde\.gradle\caches\transforms-3\53c3ab4a91e7e458cd2854d7fba34a2e\transformed\lifecycle-viewmodel-2.6.1\AndroidManifest.xml:17:1-22:12
MERGED from [androidx.savedstate:savedstate-ktx:1.2.1] C:\Users\timde\.gradle\caches\transforms-3\794dac8a66afe9dab47f32e168925d5a\transformed\savedstate-ktx-1.2.1\AndroidManifest.xml:17:1-22:12
MERGED from [androidx.savedstate:savedstate:1.2.1] C:\Users\timde\.gradle\caches\transforms-3\f54477f88718935e5f0b52b2605c3ca4\transformed\savedstate-1.2.1\AndroidManifest.xml:17:1-22:12
MERGED from [androidx.lifecycle:lifecycle-viewmodel-savedstate:2.6.1] C:\Users\timde\.gradle\caches\transforms-3\da569f0a8c42bc12d35a9d8ebe7db325\transformed\lifecycle-viewmodel-savedstate-2.6.1\AndroidManifest.xml:17:1-22:12
MERGED from [androidx.customview:customview-poolingcontainer:1.0.0] C:\Users\timde\.gradle\caches\transforms-3\130d6e0f32fd8e8751e00e27e5accc8c\transformed\customview-poolingcontainer-1.0.0\AndroidManifest.xml:17:1-23:12
MERGED from [androidx.core:core-ktx:1.10.0] C:\Users\timde\.gradle\caches\transforms-3\085b858163dad5953bb94ddcdb99f73c\transformed\core-ktx-1.10.0\AndroidManifest.xml:2:1-7:12
MERGED from [androidx.autofill:autofill:1.0.0] C:\Users\timde\.gradle\caches\transforms-3\e0f75e775ce2e57db14a0f01362baca9\transformed\autofill-1.0.0\AndroidManifest.xml:17:1-24:12
MERGED from [androidx.core:core:1.10.0] C:\Users\timde\.gradle\caches\transforms-3\da0394d56436622e48cbdf558e234f8b\transformed\core-1.10.0\AndroidManifest.xml:17:1-30:12
MERGED from [androidx.lifecycle:lifecycle-runtime:2.6.1] C:\Users\timde\.gradle\caches\transforms-3\5c64e87b3595ec03a9c7fe697b007d2a\transformed\lifecycle-runtime-2.6.1\AndroidManifest.xml:2:1-7:12
MERGED from [androidx.lifecycle:lifecycle-runtime-ktx:2.6.1] C:\Users\timde\.gradle\caches\transforms-3\eda6d36faa4507f2610db2f8b914146f\transformed\lifecycle-runtime-ktx-2.6.1\AndroidManifest.xml:17:1-22:12
MERGED from [androidx.compose.runtime:runtime-saveable:1.4.2] C:\Users\timde\.gradle\caches\transforms-3\fa2ee11bf61eb06fef3e7bb25a7f78dd\transformed\runtime-saveable-1.4.2\AndroidManifest.xml:17:1-22:12
MERGED from [androidx.compose.runtime:runtime:1.4.2] C:\Users\timde\.gradle\caches\transforms-3\e8fbd6d7fe9e7c8d5f90b3dfb7c8b7d0\transformed\runtime-1.4.2\AndroidManifest.xml:17:1-22:12
MERGED from [androidx.annotation:annotation-experimental:1.3.0] C:\Users\timde\.gradle\caches\transforms-3\c5ec658faf2b98f812e539eacbdac157\transformed\annotation-experimental-1.3.0\AndroidManifest.xml:17:1-22:12
MERGED from [androidx.interpolator:interpolator:1.0.0] C:\Users\timde\.gradle\caches\transforms-3\ac51231769d68856b80594aced794b1a\transformed\interpolator-1.0.0\AndroidManifest.xml:17:1-22:12
MERGED from [androidx.versionedparcelable:versionedparcelable:1.1.1] C:\Users\timde\.gradle\caches\transforms-3\735e150b6083f773f323ff3ac5df7af5\transformed\versionedparcelable-1.1.1\AndroidManifest.xml:17:1-27:12
MERGED from [androidx.arch.core:core-runtime:2.2.0] C:\Users\timde\.gradle\caches\transforms-3\e54e2755581eb3d884eca4775b1fc8f3\transformed\core-runtime-2.2.0\AndroidManifest.xml:17:1-22:12
MERGED from [androidx.profileinstaller:profileinstaller:1.3.0] C:\Users\timde\.gradle\caches\transforms-3\05f257b4cf3b93f36e6420d3f112121a\transformed\profileinstaller-1.3.0\AndroidManifest.xml:17:1-55:12
MERGED from [androidx.startup:startup-runtime:1.1.1] C:\Users\timde\.gradle\caches\transforms-3\892936ed6ea31511edcbd4b1bee53e2a\transformed\startup-runtime-1.1.1\AndroidManifest.xml:17:1-33:12
MERGED from [androidx.tracing:tracing:1.0.0] C:\Users\timde\.gradle\caches\transforms-3\a408ce5bbc5925fdd944e51a0fd246aa\transformed\tracing-1.0.0\AndroidManifest.xml:17:1-24:12
INJECTED from C:\Users\timde\Documents\000_All_Files\000_KDG\2022-2023\000_Vakken\UserInterfaces2\SuperProject\00SuperProject\androidprojects\material2composetemplate\U1_PW3_BirthdayCard\src\main\AndroidManifest.xml:18:1-41:12
INJECTED from C:\Users\timde\Documents\000_All_Files\000_KDG\2022-2023\000_Vakken\UserInterfaces2\SuperProject\00SuperProject\androidprojects\material2composetemplate\U1_PW3_BirthdayCard\src\main\AndroidManifest.xml:18:1-41:12
INJECTED from C:\Users\timde\Documents\000_All_Files\000_KDG\2022-2023\000_Vakken\UserInterfaces2\SuperProject\00SuperProject\androidprojects\material2composetemplate\U1_PW3_BirthdayCard\src\main\AndroidManifest.xml:18:1-41:12
	package
		INJECTED from C:\Users\timde\Documents\000_All_Files\000_KDG\2022-2023\000_Vakken\UserInterfaces2\SuperProject\00SuperProject\androidprojects\material2composetemplate\U1_PW3_BirthdayCard\src\main\AndroidManifest.xml
		ADDED from C:\Users\timde\Documents\000_All_Files\000_KDG\2022-2023\000_Vakken\UserInterfaces2\SuperProject\00SuperProject\androidprojects\material2composetemplate\U1_PW3_BirthdayCard\src\main\AndroidManifest.xml:18:1-41:12
		INJECTED from C:\Users\timde\Documents\000_All_Files\000_KDG\2022-2023\000_Vakken\UserInterfaces2\SuperProject\00SuperProject\androidprojects\material2composetemplate\U1_PW3_BirthdayCard\src\main\AndroidManifest.xml
	android:versionName
		INJECTED from C:\Users\timde\Documents\000_All_Files\000_KDG\2022-2023\000_Vakken\UserInterfaces2\SuperProject\00SuperProject\androidprojects\material2composetemplate\U1_PW3_BirthdayCard\src\main\AndroidManifest.xml
		ADDED from C:\Users\timde\Documents\000_All_Files\000_KDG\2022-2023\000_Vakken\UserInterfaces2\SuperProject\00SuperProject\androidprojects\material2composetemplate\U1_PW3_BirthdayCard\src\main\AndroidManifest.xml:18:1-41:12
		INJECTED from C:\Users\timde\Documents\000_All_Files\000_KDG\2022-2023\000_Vakken\UserInterfaces2\SuperProject\00SuperProject\androidprojects\material2composetemplate\U1_PW3_BirthdayCard\src\main\AndroidManifest.xml
	xmlns:tools
		ADDED from C:\Users\timde\Documents\000_All_Files\000_KDG\2022-2023\000_Vakken\UserInterfaces2\SuperProject\00SuperProject\androidprojects\material2composetemplate\U1_PW3_BirthdayCard\src\main\AndroidManifest.xml:19:5-51
	android:versionCode
		INJECTED from C:\Users\timde\Documents\000_All_Files\000_KDG\2022-2023\000_Vakken\UserInterfaces2\SuperProject\00SuperProject\androidprojects\material2composetemplate\U1_PW3_BirthdayCard\src\main\AndroidManifest.xml
		ADDED from C:\Users\timde\Documents\000_All_Files\000_KDG\2022-2023\000_Vakken\UserInterfaces2\SuperProject\00SuperProject\androidprojects\material2composetemplate\U1_PW3_BirthdayCard\src\main\AndroidManifest.xml:18:1-41:12
		INJECTED from C:\Users\timde\Documents\000_All_Files\000_KDG\2022-2023\000_Vakken\UserInterfaces2\SuperProject\00SuperProject\androidprojects\material2composetemplate\U1_PW3_BirthdayCard\src\main\AndroidManifest.xml
	xmlns:android
		ADDED from C:\Users\timde\Documents\000_All_Files\000_KDG\2022-2023\000_Vakken\UserInterfaces2\SuperProject\00SuperProject\androidprojects\material2composetemplate\U1_PW3_BirthdayCard\src\main\AndroidManifest.xml:18:11-69
application
ADDED from C:\Users\timde\Documents\000_All_Files\000_KDG\2022-2023\000_Vakken\UserInterfaces2\SuperProject\00SuperProject\androidprojects\material2composetemplate\U1_PW3_BirthdayCard\src\main\AndroidManifest.xml:21:5-39:19
MERGED from [androidx.compose.ui:ui-test-manifest:1.4.2] C:\Users\timde\.gradle\caches\transforms-3\5f9339112f2be119227f50b12ba96f22\transformed\ui-test-manifest-1.4.2\AndroidManifest.xml:22:5-26:19
MERGED from [androidx.compose.ui:ui-test-manifest:1.4.2] C:\Users\timde\.gradle\caches\transforms-3\5f9339112f2be119227f50b12ba96f22\transformed\ui-test-manifest-1.4.2\AndroidManifest.xml:22:5-26:19
MERGED from [androidx.compose.ui:ui-tooling:1.4.2] C:\Users\timde\.gradle\caches\transforms-3\6550bc1a497d409e7ed2aa161f8811a1\transformed\ui-tooling-1.4.2\AndroidManifest.xml:22:5-26:19
MERGED from [androidx.compose.ui:ui-tooling:1.4.2] C:\Users\timde\.gradle\caches\transforms-3\6550bc1a497d409e7ed2aa161f8811a1\transformed\ui-tooling-1.4.2\AndroidManifest.xml:22:5-26:19
MERGED from [androidx.emoji2:emoji2:1.3.0] C:\Users\timde\.gradle\caches\transforms-3\1d818927aeb332103587aef7ed3e014f\transformed\emoji2-1.3.0\AndroidManifest.xml:23:5-33:19
MERGED from [androidx.emoji2:emoji2:1.3.0] C:\Users\timde\.gradle\caches\transforms-3\1d818927aeb332103587aef7ed3e014f\transformed\emoji2-1.3.0\AndroidManifest.xml:23:5-33:19
MERGED from [androidx.lifecycle:lifecycle-process:2.6.1] C:\Users\timde\.gradle\caches\transforms-3\8496ad6fc3106366db9a7578fe6073d8\transformed\lifecycle-process-2.6.1\AndroidManifest.xml:23:5-33:19
MERGED from [androidx.lifecycle:lifecycle-process:2.6.1] C:\Users\timde\.gradle\caches\transforms-3\8496ad6fc3106366db9a7578fe6073d8\transformed\lifecycle-process-2.6.1\AndroidManifest.xml:23:5-33:19
MERGED from [androidx.core:core:1.10.0] C:\Users\timde\.gradle\caches\transforms-3\da0394d56436622e48cbdf558e234f8b\transformed\core-1.10.0\AndroidManifest.xml:28:5-89
MERGED from [androidx.core:core:1.10.0] C:\Users\timde\.gradle\caches\transforms-3\da0394d56436622e48cbdf558e234f8b\transformed\core-1.10.0\AndroidManifest.xml:28:5-89
MERGED from [androidx.versionedparcelable:versionedparcelable:1.1.1] C:\Users\timde\.gradle\caches\transforms-3\735e150b6083f773f323ff3ac5df7af5\transformed\versionedparcelable-1.1.1\AndroidManifest.xml:24:5-25:19
MERGED from [androidx.versionedparcelable:versionedparcelable:1.1.1] C:\Users\timde\.gradle\caches\transforms-3\735e150b6083f773f323ff3ac5df7af5\transformed\versionedparcelable-1.1.1\AndroidManifest.xml:24:5-25:19
MERGED from [androidx.profileinstaller:profileinstaller:1.3.0] C:\Users\timde\.gradle\caches\transforms-3\05f257b4cf3b93f36e6420d3f112121a\transformed\profileinstaller-1.3.0\AndroidManifest.xml:23:5-53:19
MERGED from [androidx.profileinstaller:profileinstaller:1.3.0] C:\Users\timde\.gradle\caches\transforms-3\05f257b4cf3b93f36e6420d3f112121a\transformed\profileinstaller-1.3.0\AndroidManifest.xml:23:5-53:19
MERGED from [androidx.startup:startup-runtime:1.1.1] C:\Users\timde\.gradle\caches\transforms-3\892936ed6ea31511edcbd4b1bee53e2a\transformed\startup-runtime-1.1.1\AndroidManifest.xml:25:5-31:19
MERGED from [androidx.startup:startup-runtime:1.1.1] C:\Users\timde\.gradle\caches\transforms-3\892936ed6ea31511edcbd4b1bee53e2a\transformed\startup-runtime-1.1.1\AndroidManifest.xml:25:5-31:19
	android:appComponentFactory
		ADDED from [androidx.core:core:1.10.0] C:\Users\timde\.gradle\caches\transforms-3\da0394d56436622e48cbdf558e234f8b\transformed\core-1.10.0\AndroidManifest.xml:28:18-86
	android:supportsRtl
		ADDED from C:\Users\timde\Documents\000_All_Files\000_KDG\2022-2023\000_Vakken\UserInterfaces2\SuperProject\00SuperProject\androidprojects\material2composetemplate\U1_PW3_BirthdayCard\src\main\AndroidManifest.xml:26:9-35
	android:label
		ADDED from C:\Users\timde\Documents\000_All_Files\000_KDG\2022-2023\000_Vakken\UserInterfaces2\SuperProject\00SuperProject\androidprojects\material2composetemplate\U1_PW3_BirthdayCard\src\main\AndroidManifest.xml:24:9-41
	android:roundIcon
		ADDED from C:\Users\timde\Documents\000_All_Files\000_KDG\2022-2023\000_Vakken\UserInterfaces2\SuperProject\00SuperProject\androidprojects\material2composetemplate\U1_PW3_BirthdayCard\src\main\AndroidManifest.xml:25:9-54
	tools:targetApi
		ADDED from C:\Users\timde\Documents\000_All_Files\000_KDG\2022-2023\000_Vakken\UserInterfaces2\SuperProject\00SuperProject\androidprojects\material2composetemplate\U1_PW3_BirthdayCard\src\main\AndroidManifest.xml:28:9-29
	android:icon
		ADDED from C:\Users\timde\Documents\000_All_Files\000_KDG\2022-2023\000_Vakken\UserInterfaces2\SuperProject\00SuperProject\androidprojects\material2composetemplate\U1_PW3_BirthdayCard\src\main\AndroidManifest.xml:23:9-43
	android:allowBackup
		ADDED from C:\Users\timde\Documents\000_All_Files\000_KDG\2022-2023\000_Vakken\UserInterfaces2\SuperProject\00SuperProject\androidprojects\material2composetemplate\U1_PW3_BirthdayCard\src\main\AndroidManifest.xml:22:9-35
	android:theme
		ADDED from C:\Users\timde\Documents\000_All_Files\000_KDG\2022-2023\000_Vakken\UserInterfaces2\SuperProject\00SuperProject\androidprojects\material2composetemplate\U1_PW3_BirthdayCard\src\main\AndroidManifest.xml:27:9-51
activity#com.example.U1_PW3_BirthdayCard.MainActivity
ADDED from C:\Users\timde\Documents\000_All_Files\000_KDG\2022-2023\000_Vakken\UserInterfaces2\SuperProject\00SuperProject\androidprojects\material2composetemplate\U1_PW3_BirthdayCard\src\main\AndroidManifest.xml:29:9-38:20
	android:exported
		ADDED from C:\Users\timde\Documents\000_All_Files\000_KDG\2022-2023\000_Vakken\UserInterfaces2\SuperProject\00SuperProject\androidprojects\material2composetemplate\U1_PW3_BirthdayCard\src\main\AndroidManifest.xml:31:13-36
	android:theme
		ADDED from C:\Users\timde\Documents\000_All_Files\000_KDG\2022-2023\000_Vakken\UserInterfaces2\SuperProject\00SuperProject\androidprojects\material2composetemplate\U1_PW3_BirthdayCard\src\main\AndroidManifest.xml:32:13-55
	android:name
		ADDED from C:\Users\timde\Documents\000_All_Files\000_KDG\2022-2023\000_Vakken\UserInterfaces2\SuperProject\00SuperProject\androidprojects\material2composetemplate\U1_PW3_BirthdayCard\src\main\AndroidManifest.xml:30:13-41
intent-filter#action:name:android.intent.action.MAIN+category:name:android.intent.category.LAUNCHER
ADDED from C:\Users\timde\Documents\000_All_Files\000_KDG\2022-2023\000_Vakken\UserInterfaces2\SuperProject\00SuperProject\androidprojects\material2composetemplate\U1_PW3_BirthdayCard\src\main\AndroidManifest.xml:33:13-37:29
action#android.intent.action.MAIN
ADDED from C:\Users\timde\Documents\000_All_Files\000_KDG\2022-2023\000_Vakken\UserInterfaces2\SuperProject\00SuperProject\androidprojects\material2composetemplate\U1_PW3_BirthdayCard\src\main\AndroidManifest.xml:34:17-69
	android:name
		ADDED from C:\Users\timde\Documents\000_All_Files\000_KDG\2022-2023\000_Vakken\UserInterfaces2\SuperProject\00SuperProject\androidprojects\material2composetemplate\U1_PW3_BirthdayCard\src\main\AndroidManifest.xml:34:25-66
category#android.intent.category.LAUNCHER
ADDED from C:\Users\timde\Documents\000_All_Files\000_KDG\2022-2023\000_Vakken\UserInterfaces2\SuperProject\00SuperProject\androidprojects\material2composetemplate\U1_PW3_BirthdayCard\src\main\AndroidManifest.xml:36:17-77
	android:name
		ADDED from C:\Users\timde\Documents\000_All_Files\000_KDG\2022-2023\000_Vakken\UserInterfaces2\SuperProject\00SuperProject\androidprojects\material2composetemplate\U1_PW3_BirthdayCard\src\main\AndroidManifest.xml:36:27-74
uses-sdk
INJECTED from C:\Users\timde\Documents\000_All_Files\000_KDG\2022-2023\000_Vakken\UserInterfaces2\SuperProject\00SuperProject\androidprojects\material2composetemplate\U1_PW3_BirthdayCard\src\main\AndroidManifest.xml reason: use-sdk injection requested
INJECTED from C:\Users\timde\Documents\000_All_Files\000_KDG\2022-2023\000_Vakken\UserInterfaces2\SuperProject\00SuperProject\androidprojects\material2composetemplate\U1_PW3_BirthdayCard\src\main\AndroidManifest.xml
INJECTED from C:\Users\timde\Documents\000_All_Files\000_KDG\2022-2023\000_Vakken\UserInterfaces2\SuperProject\00SuperProject\androidprojects\material2composetemplate\U1_PW3_BirthdayCard\src\main\AndroidManifest.xml
MERGED from [androidx.compose.material:material-ripple:1.4.2] C:\Users\timde\.gradle\caches\transforms-3\e151e7bbd601077556a000ca735b5bca\transformed\material-ripple-1.4.2\AndroidManifest.xml:20:5-44
MERGED from [androidx.compose.material:material-ripple:1.4.2] C:\Users\timde\.gradle\caches\transforms-3\e151e7bbd601077556a000ca735b5bca\transformed\material-ripple-1.4.2\AndroidManifest.xml:20:5-44
MERGED from [androidx.compose.material:material-icons-core:1.4.2] C:\Users\timde\.gradle\caches\transforms-3\cd7f9f14574b2bb4e0d14406e56f8cda\transformed\material-icons-core-1.4.2\AndroidManifest.xml:20:5-44
MERGED from [androidx.compose.material:material-icons-core:1.4.2] C:\Users\timde\.gradle\caches\transforms-3\cd7f9f14574b2bb4e0d14406e56f8cda\transformed\material-icons-core-1.4.2\AndroidManifest.xml:20:5-44
MERGED from [androidx.compose.material:material-icons-extended:1.4.2] C:\Users\timde\.gradle\caches\transforms-3\e33b6464aeb43a03a36034dbbaf1a6a8\transformed\material-icons-extended-1.4.2\AndroidManifest.xml:20:5-44
MERGED from [androidx.compose.material:material-icons-extended:1.4.2] C:\Users\timde\.gradle\caches\transforms-3\e33b6464aeb43a03a36034dbbaf1a6a8\transformed\material-icons-extended-1.4.2\AndroidManifest.xml:20:5-44
MERGED from [androidx.compose.animation:animation-core:1.4.2] C:\Users\timde\.gradle\caches\transforms-3\1465070322dc321e2e8fbd6d084bcc76\transformed\animation-core-1.4.2\AndroidManifest.xml:20:5-44
MERGED from [androidx.compose.animation:animation-core:1.4.2] C:\Users\timde\.gradle\caches\transforms-3\1465070322dc321e2e8fbd6d084bcc76\transformed\animation-core-1.4.2\AndroidManifest.xml:20:5-44
MERGED from [androidx.compose.animation:animation:1.4.2] C:\Users\timde\.gradle\caches\transforms-3\e5e5400f3a555c88e9a3aeca8871dc55\transformed\animation-1.4.2\AndroidManifest.xml:20:5-44
MERGED from [androidx.compose.animation:animation:1.4.2] C:\Users\timde\.gradle\caches\transforms-3\e5e5400f3a555c88e9a3aeca8871dc55\transformed\animation-1.4.2\AndroidManifest.xml:20:5-44
MERGED from [androidx.compose.foundation:foundation-layout:1.4.2] C:\Users\timde\.gradle\caches\transforms-3\f45ff29e5c9ce2b61f15989f1a7d866b\transformed\foundation-layout-1.4.2\AndroidManifest.xml:20:5-44
MERGED from [androidx.compose.foundation:foundation-layout:1.4.2] C:\Users\timde\.gradle\caches\transforms-3\f45ff29e5c9ce2b61f15989f1a7d866b\transformed\foundation-layout-1.4.2\AndroidManifest.xml:20:5-44
MERGED from [androidx.compose.foundation:foundation:1.4.2] C:\Users\timde\.gradle\caches\transforms-3\d62091256b9f483cb94a1ebc21d1783c\transformed\foundation-1.4.2\AndroidManifest.xml:20:5-44
MERGED from [androidx.compose.foundation:foundation:1.4.2] C:\Users\timde\.gradle\caches\transforms-3\d62091256b9f483cb94a1ebc21d1783c\transformed\foundation-1.4.2\AndroidManifest.xml:20:5-44
MERGED from [androidx.compose.ui:ui-tooling-data:1.4.2] C:\Users\timde\.gradle\caches\transforms-3\ebfee9540e38724119304eb07e1aa068\transformed\ui-tooling-data-1.4.2\AndroidManifest.xml:20:5-44
MERGED from [androidx.compose.ui:ui-tooling-data:1.4.2] C:\Users\timde\.gradle\caches\transforms-3\ebfee9540e38724119304eb07e1aa068\transformed\ui-tooling-data-1.4.2\AndroidManifest.xml:20:5-44
MERGED from [androidx.compose.ui:ui-tooling-preview:1.4.2] C:\Users\timde\.gradle\caches\transforms-3\53f94cfd74ed4bddcab34d2675315c8f\transformed\ui-tooling-preview-1.4.2\AndroidManifest.xml:20:5-44
MERGED from [androidx.compose.ui:ui-tooling-preview:1.4.2] C:\Users\timde\.gradle\caches\transforms-3\53f94cfd74ed4bddcab34d2675315c8f\transformed\ui-tooling-preview-1.4.2\AndroidManifest.xml:20:5-44
MERGED from [androidx.compose.ui:ui-util:1.4.2] C:\Users\timde\.gradle\caches\transforms-3\a0d7696249b32b63be70807ecb814611\transformed\ui-util-1.4.2\AndroidManifest.xml:20:5-44
MERGED from [androidx.compose.ui:ui-util:1.4.2] C:\Users\timde\.gradle\caches\transforms-3\a0d7696249b32b63be70807ecb814611\transformed\ui-util-1.4.2\AndroidManifest.xml:20:5-44
MERGED from [androidx.compose.ui:ui-unit:1.4.2] C:\Users\timde\.gradle\caches\transforms-3\ad96538edbdf7ce323d3f6360b0875da\transformed\ui-unit-1.4.2\AndroidManifest.xml:20:5-44
MERGED from [androidx.compose.ui:ui-unit:1.4.2] C:\Users\timde\.gradle\caches\transforms-3\ad96538edbdf7ce323d3f6360b0875da\transformed\ui-unit-1.4.2\AndroidManifest.xml:20:5-44
MERGED from [androidx.compose.ui:ui-text:1.4.2] C:\Users\timde\.gradle\caches\transforms-3\bd110d47d9dfce0829c517ff7b466236\transformed\ui-text-1.4.2\AndroidManifest.xml:20:5-44
MERGED from [androidx.compose.ui:ui-text:1.4.2] C:\Users\timde\.gradle\caches\transforms-3\bd110d47d9dfce0829c517ff7b466236\transformed\ui-text-1.4.2\AndroidManifest.xml:20:5-44
MERGED from [androidx.compose.ui:ui-graphics:1.4.2] C:\Users\timde\.gradle\caches\transforms-3\f7799cd3e09693a77ffb2ccf096ed6e2\transformed\ui-graphics-1.4.2\AndroidManifest.xml:20:5-44
MERGED from [androidx.compose.ui:ui-graphics:1.4.2] C:\Users\timde\.gradle\caches\transforms-3\f7799cd3e09693a77ffb2ccf096ed6e2\transformed\ui-graphics-1.4.2\AndroidManifest.xml:20:5-44
MERGED from [androidx.compose.ui:ui-geometry:1.4.2] C:\Users\timde\.gradle\caches\transforms-3\e88ac30c98b50249cc8ad7ee8ee9341b\transformed\ui-geometry-1.4.2\AndroidManifest.xml:20:5-44
MERGED from [androidx.compose.ui:ui-geometry:1.4.2] C:\Users\timde\.gradle\caches\transforms-3\e88ac30c98b50249cc8ad7ee8ee9341b\transformed\ui-geometry-1.4.2\AndroidManifest.xml:20:5-44
MERGED from [androidx.compose.ui:ui-test-manifest:1.4.2] C:\Users\timde\.gradle\caches\transforms-3\5f9339112f2be119227f50b12ba96f22\transformed\ui-test-manifest-1.4.2\AndroidManifest.xml:20:5-44
MERGED from [androidx.compose.ui:ui-test-manifest:1.4.2] C:\Users\timde\.gradle\caches\transforms-3\5f9339112f2be119227f50b12ba96f22\transformed\ui-test-manifest-1.4.2\AndroidManifest.xml:20:5-44
MERGED from [androidx.activity:activity:1.7.1] C:\Users\timde\.gradle\caches\transforms-3\b634978aabb70b808819a516ed088c30\transformed\activity-1.7.1\AndroidManifest.xml:20:5-44
MERGED from [androidx.activity:activity:1.7.1] C:\Users\timde\.gradle\caches\transforms-3\b634978aabb70b808819a516ed088c30\transformed\activity-1.7.1\AndroidManifest.xml:20:5-44
MERGED from [androidx.activity:activity-ktx:1.7.1] C:\Users\timde\.gradle\caches\transforms-3\75c082df9d66b13976037364f76127ca\transformed\activity-ktx-1.7.1\AndroidManifest.xml:20:5-44
MERGED from [androidx.activity:activity-ktx:1.7.1] C:\Users\timde\.gradle\caches\transforms-3\75c082df9d66b13976037364f76127ca\transformed\activity-ktx-1.7.1\AndroidManifest.xml:20:5-44
MERGED from [androidx.activity:activity-compose:1.7.1] C:\Users\timde\.gradle\caches\transforms-3\7f9a1de74d798ce4e855eed02b4b28e0\transformed\activity-compose-1.7.1\AndroidManifest.xml:20:5-44
MERGED from [androidx.activity:activity-compose:1.7.1] C:\Users\timde\.gradle\caches\transforms-3\7f9a1de74d798ce4e855eed02b4b28e0\transformed\activity-compose-1.7.1\AndroidManifest.xml:20:5-44
MERGED from [androidx.compose.ui:ui:1.4.2] C:\Users\timde\.gradle\caches\transforms-3\7f5b02014d9ec1b34b4ab94afbfac7a1\transformed\ui-1.4.2\AndroidManifest.xml:20:5-44
MERGED from [androidx.compose.ui:ui:1.4.2] C:\Users\timde\.gradle\caches\transforms-3\7f5b02014d9ec1b34b4ab94afbfac7a1\transformed\ui-1.4.2\AndroidManifest.xml:20:5-44
MERGED from [androidx.compose.ui:ui-tooling:1.4.2] C:\Users\timde\.gradle\caches\transforms-3\6550bc1a497d409e7ed2aa161f8811a1\transformed\ui-tooling-1.4.2\AndroidManifest.xml:20:5-44
MERGED from [androidx.compose.ui:ui-tooling:1.4.2] C:\Users\timde\.gradle\caches\transforms-3\6550bc1a497d409e7ed2aa161f8811a1\transformed\ui-tooling-1.4.2\AndroidManifest.xml:20:5-44
MERGED from [androidx.compose.material:material:1.4.2] C:\Users\timde\.gradle\caches\transforms-3\f55e3fd36ef81ba5b94be32c34549c00\transformed\material-1.4.2\AndroidManifest.xml:20:5-44
MERGED from [androidx.compose.material:material:1.4.2] C:\Users\timde\.gradle\caches\transforms-3\f55e3fd36ef81ba5b94be32c34549c00\transformed\material-1.4.2\AndroidManifest.xml:20:5-44
MERGED from [androidx.emoji2:emoji2:1.3.0] C:\Users\timde\.gradle\caches\transforms-3\1d818927aeb332103587aef7ed3e014f\transformed\emoji2-1.3.0\AndroidManifest.xml:21:5-44
MERGED from [androidx.emoji2:emoji2:1.3.0] C:\Users\timde\.gradle\caches\transforms-3\1d818927aeb332103587aef7ed3e014f\transformed\emoji2-1.3.0\AndroidManifest.xml:21:5-44
MERGED from [androidx.lifecycle:lifecycle-livedata-core:2.6.1] C:\Users\timde\.gradle\caches\transforms-3\ddb0b65a15277ea1a5f51750eec31537\transformed\lifecycle-livedata-core-2.6.1\AndroidManifest.xml:20:5-44
MERGED from [androidx.lifecycle:lifecycle-livedata-core:2.6.1] C:\Users\timde\.gradle\caches\transforms-3\ddb0b65a15277ea1a5f51750eec31537\transformed\lifecycle-livedata-core-2.6.1\AndroidManifest.xml:20:5-44
MERGED from [androidx.lifecycle:lifecycle-process:2.6.1] C:\Users\timde\.gradle\caches\transforms-3\8496ad6fc3106366db9a7578fe6073d8\transformed\lifecycle-process-2.6.1\AndroidManifest.xml:21:5-44
MERGED from [androidx.lifecycle:lifecycle-process:2.6.1] C:\Users\timde\.gradle\caches\transforms-3\8496ad6fc3106366db9a7578fe6073d8\transformed\lifecycle-process-2.6.1\AndroidManifest.xml:21:5-44
MERGED from [androidx.lifecycle:lifecycle-viewmodel-ktx:2.6.1] C:\Users\timde\.gradle\caches\transforms-3\6edc7de7c7b6bf424298dc179471fea1\transformed\lifecycle-viewmodel-ktx-2.6.1\AndroidManifest.xml:20:5-44
MERGED from [androidx.lifecycle:lifecycle-viewmodel-ktx:2.6.1] C:\Users\timde\.gradle\caches\transforms-3\6edc7de7c7b6bf424298dc179471fea1\transformed\lifecycle-viewmodel-ktx-2.6.1\AndroidManifest.xml:20:5-44
MERGED from [androidx.lifecycle:lifecycle-viewmodel:2.6.1] C:\Users\timde\.gradle\caches\transforms-3\53c3ab4a91e7e458cd2854d7fba34a2e\transformed\lifecycle-viewmodel-2.6.1\AndroidManifest.xml:20:5-44
MERGED from [androidx.lifecycle:lifecycle-viewmodel:2.6.1] C:\Users\timde\.gradle\caches\transforms-3\53c3ab4a91e7e458cd2854d7fba34a2e\transformed\lifecycle-viewmodel-2.6.1\AndroidManifest.xml:20:5-44
MERGED from [androidx.savedstate:savedstate-ktx:1.2.1] C:\Users\timde\.gradle\caches\transforms-3\794dac8a66afe9dab47f32e168925d5a\transformed\savedstate-ktx-1.2.1\AndroidManifest.xml:20:5-44
MERGED from [androidx.savedstate:savedstate-ktx:1.2.1] C:\Users\timde\.gradle\caches\transforms-3\794dac8a66afe9dab47f32e168925d5a\transformed\savedstate-ktx-1.2.1\AndroidManifest.xml:20:5-44
MERGED from [androidx.savedstate:savedstate:1.2.1] C:\Users\timde\.gradle\caches\transforms-3\f54477f88718935e5f0b52b2605c3ca4\transformed\savedstate-1.2.1\AndroidManifest.xml:20:5-44
MERGED from [androidx.savedstate:savedstate:1.2.1] C:\Users\timde\.gradle\caches\transforms-3\f54477f88718935e5f0b52b2605c3ca4\transformed\savedstate-1.2.1\AndroidManifest.xml:20:5-44
MERGED from [androidx.lifecycle:lifecycle-viewmodel-savedstate:2.6.1] C:\Users\timde\.gradle\caches\transforms-3\da569f0a8c42bc12d35a9d8ebe7db325\transformed\lifecycle-viewmodel-savedstate-2.6.1\AndroidManifest.xml:20:5-44
MERGED from [androidx.lifecycle:lifecycle-viewmodel-savedstate:2.6.1] C:\Users\timde\.gradle\caches\transforms-3\da569f0a8c42bc12d35a9d8ebe7db325\transformed\lifecycle-viewmodel-savedstate-2.6.1\AndroidManifest.xml:20:5-44
MERGED from [androidx.customview:customview-poolingcontainer:1.0.0] C:\Users\timde\.gradle\caches\transforms-3\130d6e0f32fd8e8751e00e27e5accc8c\transformed\customview-poolingcontainer-1.0.0\AndroidManifest.xml:20:5-21:38
MERGED from [androidx.customview:customview-poolingcontainer:1.0.0] C:\Users\timde\.gradle\caches\transforms-3\130d6e0f32fd8e8751e00e27e5accc8c\transformed\customview-poolingcontainer-1.0.0\AndroidManifest.xml:20:5-21:38
MERGED from [androidx.core:core-ktx:1.10.0] C:\Users\timde\.gradle\caches\transforms-3\085b858163dad5953bb94ddcdb99f73c\transformed\core-ktx-1.10.0\AndroidManifest.xml:5:5-44
MERGED from [androidx.core:core-ktx:1.10.0] C:\Users\timde\.gradle\caches\transforms-3\085b858163dad5953bb94ddcdb99f73c\transformed\core-ktx-1.10.0\AndroidManifest.xml:5:5-44
MERGED from [androidx.autofill:autofill:1.0.0] C:\Users\timde\.gradle\caches\transforms-3\e0f75e775ce2e57db14a0f01362baca9\transformed\autofill-1.0.0\AndroidManifest.xml:20:5-22:41
MERGED from [androidx.autofill:autofill:1.0.0] C:\Users\timde\.gradle\caches\transforms-3\e0f75e775ce2e57db14a0f01362baca9\transformed\autofill-1.0.0\AndroidManifest.xml:20:5-22:41
MERGED from [androidx.core:core:1.10.0] C:\Users\timde\.gradle\caches\transforms-3\da0394d56436622e48cbdf558e234f8b\transformed\core-1.10.0\AndroidManifest.xml:20:5-44
MERGED from [androidx.core:core:1.10.0] C:\Users\timde\.gradle\caches\transforms-3\da0394d56436622e48cbdf558e234f8b\transformed\core-1.10.0\AndroidManifest.xml:20:5-44
MERGED from [androidx.lifecycle:lifecycle-runtime:2.6.1] C:\Users\timde\.gradle\caches\transforms-3\5c64e87b3595ec03a9c7fe697b007d2a\transformed\lifecycle-runtime-2.6.1\AndroidManifest.xml:5:5-44
MERGED from [androidx.lifecycle:lifecycle-runtime:2.6.1] C:\Users\timde\.gradle\caches\transforms-3\5c64e87b3595ec03a9c7fe697b007d2a\transformed\lifecycle-runtime-2.6.1\AndroidManifest.xml:5:5-44
MERGED from [androidx.lifecycle:lifecycle-runtime-ktx:2.6.1] C:\Users\timde\.gradle\caches\transforms-3\eda6d36faa4507f2610db2f8b914146f\transformed\lifecycle-runtime-ktx-2.6.1\AndroidManifest.xml:20:5-44
MERGED from [androidx.lifecycle:lifecycle-runtime-ktx:2.6.1] C:\Users\timde\.gradle\caches\transforms-3\eda6d36faa4507f2610db2f8b914146f\transformed\lifecycle-runtime-ktx-2.6.1\AndroidManifest.xml:20:5-44
MERGED from [androidx.compose.runtime:runtime-saveable:1.4.2] C:\Users\timde\.gradle\caches\transforms-3\fa2ee11bf61eb06fef3e7bb25a7f78dd\transformed\runtime-saveable-1.4.2\AndroidManifest.xml:20:5-44
MERGED from [androidx.compose.runtime:runtime-saveable:1.4.2] C:\Users\timde\.gradle\caches\transforms-3\fa2ee11bf61eb06fef3e7bb25a7f78dd\transformed\runtime-saveable-1.4.2\AndroidManifest.xml:20:5-44
MERGED from [androidx.compose.runtime:runtime:1.4.2] C:\Users\timde\.gradle\caches\transforms-3\e8fbd6d7fe9e7c8d5f90b3dfb7c8b7d0\transformed\runtime-1.4.2\AndroidManifest.xml:20:5-44
MERGED from [androidx.compose.runtime:runtime:1.4.2] C:\Users\timde\.gradle\caches\transforms-3\e8fbd6d7fe9e7c8d5f90b3dfb7c8b7d0\transformed\runtime-1.4.2\AndroidManifest.xml:20:5-44
MERGED from [androidx.annotation:annotation-experimental:1.3.0] C:\Users\timde\.gradle\caches\transforms-3\c5ec658faf2b98f812e539eacbdac157\transformed\annotation-experimental-1.3.0\AndroidManifest.xml:20:5-44
MERGED from [androidx.annotation:annotation-experimental:1.3.0] C:\Users\timde\.gradle\caches\transforms-3\c5ec658faf2b98f812e539eacbdac157\transformed\annotation-experimental-1.3.0\AndroidManifest.xml:20:5-44
MERGED from [androidx.interpolator:interpolator:1.0.0] C:\Users\timde\.gradle\caches\transforms-3\ac51231769d68856b80594aced794b1a\transformed\interpolator-1.0.0\AndroidManifest.xml:20:5-44
MERGED from [androidx.interpolator:interpolator:1.0.0] C:\Users\timde\.gradle\caches\transforms-3\ac51231769d68856b80594aced794b1a\transformed\interpolator-1.0.0\AndroidManifest.xml:20:5-44
MERGED from [androidx.versionedparcelable:versionedparcelable:1.1.1] C:\Users\timde\.gradle\caches\transforms-3\735e150b6083f773f323ff3ac5df7af5\transformed\versionedparcelable-1.1.1\AndroidManifest.xml:20:5-22:41
MERGED from [androidx.versionedparcelable:versionedparcelable:1.1.1] C:\Users\timde\.gradle\caches\transforms-3\735e150b6083f773f323ff3ac5df7af5\transformed\versionedparcelable-1.1.1\AndroidManifest.xml:20:5-22:41
MERGED from [androidx.arch.core:core-runtime:2.2.0] C:\Users\timde\.gradle\caches\transforms-3\e54e2755581eb3d884eca4775b1fc8f3\transformed\core-runtime-2.2.0\AndroidManifest.xml:20:5-44
MERGED from [androidx.arch.core:core-runtime:2.2.0] C:\Users\timde\.gradle\caches\transforms-3\e54e2755581eb3d884eca4775b1fc8f3\transformed\core-runtime-2.2.0\AndroidManifest.xml:20:5-44
MERGED from [androidx.profileinstaller:profileinstaller:1.3.0] C:\Users\timde\.gradle\caches\transforms-3\05f257b4cf3b93f36e6420d3f112121a\transformed\profileinstaller-1.3.0\AndroidManifest.xml:21:5-44
MERGED from [androidx.profileinstaller:profileinstaller:1.3.0] C:\Users\timde\.gradle\caches\transforms-3\05f257b4cf3b93f36e6420d3f112121a\transformed\profileinstaller-1.3.0\AndroidManifest.xml:21:5-44
MERGED from [androidx.startup:startup-runtime:1.1.1] C:\Users\timde\.gradle\caches\transforms-3\892936ed6ea31511edcbd4b1bee53e2a\transformed\startup-runtime-1.1.1\AndroidManifest.xml:21:5-23:41
MERGED from [androidx.startup:startup-runtime:1.1.1] C:\Users\timde\.gradle\caches\transforms-3\892936ed6ea31511edcbd4b1bee53e2a\transformed\startup-runtime-1.1.1\AndroidManifest.xml:21:5-23:41
MERGED from [androidx.tracing:tracing:1.0.0] C:\Users\timde\.gradle\caches\transforms-3\a408ce5bbc5925fdd944e51a0fd246aa\transformed\tracing-1.0.0\AndroidManifest.xml:20:5-22:41
MERGED from [androidx.tracing:tracing:1.0.0] C:\Users\timde\.gradle\caches\transforms-3\a408ce5bbc5925fdd944e51a0fd246aa\transformed\tracing-1.0.0\AndroidManifest.xml:20:5-22:41
INJECTED from C:\Users\timde\Documents\000_All_Files\000_KDG\2022-2023\000_Vakken\UserInterfaces2\SuperProject\00SuperProject\androidprojects\material2composetemplate\U1_PW3_BirthdayCard\src\main\AndroidManifest.xml
INJECTED from C:\Users\timde\Documents\000_All_Files\000_KDG\2022-2023\000_Vakken\UserInterfaces2\SuperProject\00SuperProject\androidprojects\material2composetemplate\U1_PW3_BirthdayCard\src\main\AndroidManifest.xml
	android:targetSdkVersion
		INJECTED from C:\Users\timde\Documents\000_All_Files\000_KDG\2022-2023\000_Vakken\UserInterfaces2\SuperProject\00SuperProject\androidprojects\material2composetemplate\U1_PW3_BirthdayCard\src\main\AndroidManifest.xml
		ADDED from C:\Users\timde\Documents\000_All_Files\000_KDG\2022-2023\000_Vakken\UserInterfaces2\SuperProject\00SuperProject\androidprojects\material2composetemplate\U1_PW3_BirthdayCard\src\main\AndroidManifest.xml
		INJECTED from C:\Users\timde\Documents\000_All_Files\000_KDG\2022-2023\000_Vakken\UserInterfaces2\SuperProject\00SuperProject\androidprojects\material2composetemplate\U1_PW3_BirthdayCard\src\main\AndroidManifest.xml
	android:minSdkVersion
		INJECTED from C:\Users\timde\Documents\000_All_Files\000_KDG\2022-2023\000_Vakken\UserInterfaces2\SuperProject\00SuperProject\androidprojects\material2composetemplate\U1_PW3_BirthdayCard\src\main\AndroidManifest.xml
		ADDED from C:\Users\timde\Documents\000_All_Files\000_KDG\2022-2023\000_Vakken\UserInterfaces2\SuperProject\00SuperProject\androidprojects\material2composetemplate\U1_PW3_BirthdayCard\src\main\AndroidManifest.xml
		INJECTED from C:\Users\timde\Documents\000_All_Files\000_KDG\2022-2023\000_Vakken\UserInterfaces2\SuperProject\00SuperProject\androidprojects\material2composetemplate\U1_PW3_BirthdayCard\src\main\AndroidManifest.xml
activity#androidx.activity.ComponentActivity
ADDED from [androidx.compose.ui:ui-test-manifest:1.4.2] C:\Users\timde\.gradle\caches\transforms-3\5f9339112f2be119227f50b12ba96f22\transformed\ui-test-manifest-1.4.2\AndroidManifest.xml:23:9-25:39
	android:exported
		ADDED from [androidx.compose.ui:ui-test-manifest:1.4.2] C:\Users\timde\.gradle\caches\transforms-3\5f9339112f2be119227f50b12ba96f22\transformed\ui-test-manifest-1.4.2\AndroidManifest.xml:25:13-36
	android:name
		ADDED from [androidx.compose.ui:ui-test-manifest:1.4.2] C:\Users\timde\.gradle\caches\transforms-3\5f9339112f2be119227f50b12ba96f22\transformed\ui-test-manifest-1.4.2\AndroidManifest.xml:24:13-63
activity#androidx.compose.ui.tooling.PreviewActivity
ADDED from [androidx.compose.ui:ui-tooling:1.4.2] C:\Users\timde\.gradle\caches\transforms-3\6550bc1a497d409e7ed2aa161f8811a1\transformed\ui-tooling-1.4.2\AndroidManifest.xml:23:9-25:39
	android:exported
		ADDED from [androidx.compose.ui:ui-tooling:1.4.2] C:\Users\timde\.gradle\caches\transforms-3\6550bc1a497d409e7ed2aa161f8811a1\transformed\ui-tooling-1.4.2\AndroidManifest.xml:25:13-36
	android:name
		ADDED from [androidx.compose.ui:ui-tooling:1.4.2] C:\Users\timde\.gradle\caches\transforms-3\6550bc1a497d409e7ed2aa161f8811a1\transformed\ui-tooling-1.4.2\AndroidManifest.xml:24:13-71
provider#androidx.startup.InitializationProvider
ADDED from [androidx.emoji2:emoji2:1.3.0] C:\Users\timde\.gradle\caches\transforms-3\1d818927aeb332103587aef7ed3e014f\transformed\emoji2-1.3.0\AndroidManifest.xml:24:9-32:20
MERGED from [androidx.lifecycle:lifecycle-process:2.6.1] C:\Users\timde\.gradle\caches\transforms-3\8496ad6fc3106366db9a7578fe6073d8\transformed\lifecycle-process-2.6.1\AndroidManifest.xml:24:9-32:20
MERGED from [androidx.lifecycle:lifecycle-process:2.6.1] C:\Users\timde\.gradle\caches\transforms-3\8496ad6fc3106366db9a7578fe6073d8\transformed\lifecycle-process-2.6.1\AndroidManifest.xml:24:9-32:20
MERGED from [androidx.profileinstaller:profileinstaller:1.3.0] C:\Users\timde\.gradle\caches\transforms-3\05f257b4cf3b93f36e6420d3f112121a\transformed\profileinstaller-1.3.0\AndroidManifest.xml:24:9-32:20
MERGED from [androidx.profileinstaller:profileinstaller:1.3.0] C:\Users\timde\.gradle\caches\transforms-3\05f257b4cf3b93f36e6420d3f112121a\transformed\profileinstaller-1.3.0\AndroidManifest.xml:24:9-32:20
MERGED from [androidx.startup:startup-runtime:1.1.1] C:\Users\timde\.gradle\caches\transforms-3\892936ed6ea31511edcbd4b1bee53e2a\transformed\startup-runtime-1.1.1\AndroidManifest.xml:26:9-30:34
MERGED from [androidx.startup:startup-runtime:1.1.1] C:\Users\timde\.gradle\caches\transforms-3\892936ed6ea31511edcbd4b1bee53e2a\transformed\startup-runtime-1.1.1\AndroidManifest.xml:26:9-30:34
	tools:node
		ADDED from [androidx.emoji2:emoji2:1.3.0] C:\Users\timde\.gradle\caches\transforms-3\1d818927aeb332103587aef7ed3e014f\transformed\emoji2-1.3.0\AndroidManifest.xml:28:13-31
	android:authorities
		ADDED from [androidx.emoji2:emoji2:1.3.0] C:\Users\timde\.gradle\caches\transforms-3\1d818927aeb332103587aef7ed3e014f\transformed\emoji2-1.3.0\AndroidManifest.xml:26:13-68
	android:exported
		ADDED from [androidx.emoji2:emoji2:1.3.0] C:\Users\timde\.gradle\caches\transforms-3\1d818927aeb332103587aef7ed3e014f\transformed\emoji2-1.3.0\AndroidManifest.xml:27:13-37
	android:name
		ADDED from [androidx.emoji2:emoji2:1.3.0] C:\Users\timde\.gradle\caches\transforms-3\1d818927aeb332103587aef7ed3e014f\transformed\emoji2-1.3.0\AndroidManifest.xml:25:13-67
meta-data#androidx.emoji2.text.EmojiCompatInitializer
ADDED from [androidx.emoji2:emoji2:1.3.0] C:\Users\timde\.gradle\caches\transforms-3\1d818927aeb332103587aef7ed3e014f\transformed\emoji2-1.3.0\AndroidManifest.xml:29:13-31:52
	android:value
		ADDED from [androidx.emoji2:emoji2:1.3.0] C:\Users\timde\.gradle\caches\transforms-3\1d818927aeb332103587aef7ed3e014f\transformed\emoji2-1.3.0\AndroidManifest.xml:31:17-49
	android:name
		ADDED from [androidx.emoji2:emoji2:1.3.0] C:\Users\timde\.gradle\caches\transforms-3\1d818927aeb332103587aef7ed3e014f\transformed\emoji2-1.3.0\AndroidManifest.xml:30:17-75
meta-data#androidx.lifecycle.ProcessLifecycleInitializer
ADDED from [androidx.lifecycle:lifecycle-process:2.6.1] C:\Users\timde\.gradle\caches\transforms-3\8496ad6fc3106366db9a7578fe6073d8\transformed\lifecycle-process-2.6.1\AndroidManifest.xml:29:13-31:52
	android:value
		ADDED from [androidx.lifecycle:lifecycle-process:2.6.1] C:\Users\timde\.gradle\caches\transforms-3\8496ad6fc3106366db9a7578fe6073d8\transformed\lifecycle-process-2.6.1\AndroidManifest.xml:31:17-49
	android:name
		ADDED from [androidx.lifecycle:lifecycle-process:2.6.1] C:\Users\timde\.gradle\caches\transforms-3\8496ad6fc3106366db9a7578fe6073d8\transformed\lifecycle-process-2.6.1\AndroidManifest.xml:30:17-78
permission#${applicationId}.DYNAMIC_RECEIVER_NOT_EXPORTED_PERMISSION
ADDED from [androidx.core:core:1.10.0] C:\Users\timde\.gradle\caches\transforms-3\da0394d56436622e48cbdf558e234f8b\transformed\core-1.10.0\AndroidManifest.xml:22:5-24:47
	android:protectionLevel
		ADDED from [androidx.core:core:1.10.0] C:\Users\timde\.gradle\caches\transforms-3\da0394d56436622e48cbdf558e234f8b\transformed\core-1.10.0\AndroidManifest.xml:24:9-44
	android:name
		ADDED from [androidx.core:core:1.10.0] C:\Users\timde\.gradle\caches\transforms-3\da0394d56436622e48cbdf558e234f8b\transformed\core-1.10.0\AndroidManifest.xml:23:9-81
permission#com.example.happybirthday.DYNAMIC_RECEIVER_NOT_EXPORTED_PERMISSION
ADDED from [androidx.core:core:1.10.0] C:\Users\timde\.gradle\caches\transforms-3\da0394d56436622e48cbdf558e234f8b\transformed\core-1.10.0\AndroidManifest.xml:22:5-24:47
	android:protectionLevel
		ADDED from [androidx.core:core:1.10.0] C:\Users\timde\.gradle\caches\transforms-3\da0394d56436622e48cbdf558e234f8b\transformed\core-1.10.0\AndroidManifest.xml:24:9-44
	android:name
		ADDED from [androidx.core:core:1.10.0] C:\Users\timde\.gradle\caches\transforms-3\da0394d56436622e48cbdf558e234f8b\transformed\core-1.10.0\AndroidManifest.xml:23:9-81
uses-permission#${applicationId}.DYNAMIC_RECEIVER_NOT_EXPORTED_PERMISSION
ADDED from [androidx.core:core:1.10.0] C:\Users\timde\.gradle\caches\transforms-3\da0394d56436622e48cbdf558e234f8b\transformed\core-1.10.0\AndroidManifest.xml:26:5-97
	android:name
		ADDED from [androidx.core:core:1.10.0] C:\Users\timde\.gradle\caches\transforms-3\da0394d56436622e48cbdf558e234f8b\transformed\core-1.10.0\AndroidManifest.xml:26:22-94
uses-permission#com.example.happybirthday.DYNAMIC_RECEIVER_NOT_EXPORTED_PERMISSION
ADDED from [androidx.core:core:1.10.0] C:\Users\timde\.gradle\caches\transforms-3\da0394d56436622e48cbdf558e234f8b\transformed\core-1.10.0\AndroidManifest.xml:26:5-97
	android:name
		ADDED from [androidx.core:core:1.10.0] C:\Users\timde\.gradle\caches\transforms-3\da0394d56436622e48cbdf558e234f8b\transformed\core-1.10.0\AndroidManifest.xml:26:22-94
meta-data#androidx.profileinstaller.ProfileInstallerInitializer
ADDED from [androidx.profileinstaller:profileinstaller:1.3.0] C:\Users\timde\.gradle\caches\transforms-3\05f257b4cf3b93f36e6420d3f112121a\transformed\profileinstaller-1.3.0\AndroidManifest.xml:29:13-31:52
	android:value
		ADDED from [androidx.profileinstaller:profileinstaller:1.3.0] C:\Users\timde\.gradle\caches\transforms-3\05f257b4cf3b93f36e6420d3f112121a\transformed\profileinstaller-1.3.0\AndroidManifest.xml:31:17-49
	android:name
		ADDED from [androidx.profileinstaller:profileinstaller:1.3.0] C:\Users\timde\.gradle\caches\transforms-3\05f257b4cf3b93f36e6420d3f112121a\transformed\profileinstaller-1.3.0\AndroidManifest.xml:30:17-85
receiver#androidx.profileinstaller.ProfileInstallReceiver
ADDED from [androidx.profileinstaller:profileinstaller:1.3.0] C:\Users\timde\.gradle\caches\transforms-3\05f257b4cf3b93f36e6420d3f112121a\transformed\profileinstaller-1.3.0\AndroidManifest.xml:34:9-52:20
	android:enabled
		ADDED from [androidx.profileinstaller:profileinstaller:1.3.0] C:\Users\timde\.gradle\caches\transforms-3\05f257b4cf3b93f36e6420d3f112121a\transformed\profileinstaller-1.3.0\AndroidManifest.xml:37:13-35
	android:exported
		ADDED from [androidx.profileinstaller:profileinstaller:1.3.0] C:\Users\timde\.gradle\caches\transforms-3\05f257b4cf3b93f36e6420d3f112121a\transformed\profileinstaller-1.3.0\AndroidManifest.xml:38:13-36
	android:permission
		ADDED from [androidx.profileinstaller:profileinstaller:1.3.0] C:\Users\timde\.gradle\caches\transforms-3\05f257b4cf3b93f36e6420d3f112121a\transformed\profileinstaller-1.3.0\AndroidManifest.xml:39:13-57
	android:directBootAware
		ADDED from [androidx.profileinstaller:profileinstaller:1.3.0] C:\Users\timde\.gradle\caches\transforms-3\05f257b4cf3b93f36e6420d3f112121a\transformed\profileinstaller-1.3.0\AndroidManifest.xml:36:13-44
	android:name
		ADDED from [androidx.profileinstaller:profileinstaller:1.3.0] C:\Users\timde\.gradle\caches\transforms-3\05f257b4cf3b93f36e6420d3f112121a\transformed\profileinstaller-1.3.0\AndroidManifest.xml:35:13-76
intent-filter#action:name:androidx.profileinstaller.action.INSTALL_PROFILE
ADDED from [androidx.profileinstaller:profileinstaller:1.3.0] C:\Users\timde\.gradle\caches\transforms-3\05f257b4cf3b93f36e6420d3f112121a\transformed\profileinstaller-1.3.0\AndroidManifest.xml:40:13-42:29
action#androidx.profileinstaller.action.INSTALL_PROFILE
ADDED from [androidx.profileinstaller:profileinstaller:1.3.0] C:\Users\timde\.gradle\caches\transforms-3\05f257b4cf3b93f36e6420d3f112121a\transformed\profileinstaller-1.3.0\AndroidManifest.xml:41:17-91
	android:name
		ADDED from [androidx.profileinstaller:profileinstaller:1.3.0] C:\Users\timde\.gradle\caches\transforms-3\05f257b4cf3b93f36e6420d3f112121a\transformed\profileinstaller-1.3.0\AndroidManifest.xml:41:25-88
intent-filter#action:name:androidx.profileinstaller.action.SKIP_FILE
ADDED from [androidx.profileinstaller:profileinstaller:1.3.0] C:\Users\timde\.gradle\caches\transforms-3\05f257b4cf3b93f36e6420d3f112121a\transformed\profileinstaller-1.3.0\AndroidManifest.xml:43:13-45:29
action#androidx.profileinstaller.action.SKIP_FILE
ADDED from [androidx.profileinstaller:profileinstaller:1.3.0] C:\Users\timde\.gradle\caches\transforms-3\05f257b4cf3b93f36e6420d3f112121a\transformed\profileinstaller-1.3.0\AndroidManifest.xml:44:17-85
	android:name
		ADDED from [androidx.profileinstaller:profileinstaller:1.3.0] C:\Users\timde\.gradle\caches\transforms-3\05f257b4cf3b93f36e6420d3f112121a\transformed\profileinstaller-1.3.0\AndroidManifest.xml:44:25-82
intent-filter#action:name:androidx.profileinstaller.action.SAVE_PROFILE
ADDED from [androidx.profileinstaller:profileinstaller:1.3.0] C:\Users\timde\.gradle\caches\transforms-3\05f257b4cf3b93f36e6420d3f112121a\transformed\profileinstaller-1.3.0\AndroidManifest.xml:46:13-48:29
action#androidx.profileinstaller.action.SAVE_PROFILE
ADDED from [androidx.profileinstaller:profileinstaller:1.3.0] C:\Users\timde\.gradle\caches\transforms-3\05f257b4cf3b93f36e6420d3f112121a\transformed\profileinstaller-1.3.0\AndroidManifest.xml:47:17-88
	android:name
		ADDED from [androidx.profileinstaller:profileinstaller:1.3.0] C:\Users\timde\.gradle\caches\transforms-3\05f257b4cf3b93f36e6420d3f112121a\transformed\profileinstaller-1.3.0\AndroidManifest.xml:47:25-85
intent-filter#action:name:androidx.profileinstaller.action.BENCHMARK_OPERATION
ADDED from [androidx.profileinstaller:profileinstaller:1.3.0] C:\Users\timde\.gradle\caches\transforms-3\05f257b4cf3b93f36e6420d3f112121a\transformed\profileinstaller-1.3.0\AndroidManifest.xml:49:13-51:29
action#androidx.profileinstaller.action.BENCHMARK_OPERATION
ADDED from [androidx.profileinstaller:profileinstaller:1.3.0] C:\Users\timde\.gradle\caches\transforms-3\05f257b4cf3b93f36e6420d3f112121a\transformed\profileinstaller-1.3.0\AndroidManifest.xml:50:17-95
	android:name
		ADDED from [androidx.profileinstaller:profileinstaller:1.3.0] C:\Users\timde\.gradle\caches\transforms-3\05f257b4cf3b93f36e6420d3f112121a\transformed\profileinstaller-1.3.0\AndroidManifest.xml:50:25-92
